build/cpu_tb.vcd
$date
	Thu Mar 19 21:43:35 2026
$end
$version
	Icarus Verilog
$end
$timescale
	1ns
$end
$scope module cpu_tb $end
$var parameter 32 ! clk_freq $end
$var reg 1 " clk $end
$var reg 1 # rstn $end
$scope module u_cpu $end
$var wire 1 " clk $end
$var wire 1 $ ex_Branch_taken $end
$var wire 32 % ex_Rs1Imm [31:0] $end
$var wire 1 # rstn $end
$var wire 32 & wb_wdata [31:0] $end
$var wire 2 ' wb_WTR [1:0] $end
$var wire 32 ( wb_Result [31:0] $end
$var wire 1 ) wb_RegWrite $end
$var wire 5 * wb_Rd [4:0] $end
$var wire 32 + wb_PC4 [31:0] $end
$var wire 32 , wb_Imm [31:0] $end
$var wire 32 - wb_Data [31:0] $end
$var wire 32 . pc4 [31:0] $end
$var wire 32 / pc [31:0] $end
$var wire 32 0 next_pc [31:0] $end
$var wire 32 1 mem_rdata [31:0] $end
$var wire 2 2 mem_WTR [1:0] $end
$var wire 32 3 mem_Result [31:0] $end
$var wire 1 4 mem_RegWrite $end
$var wire 5 5 mem_Rd [4:0] $end
$var wire 32 6 mem_PC4 [31:0] $end
$var wire 2 7 mem_MemWrite [1:0] $end
$var wire 3 8 mem_MemRead [2:0] $end
$var wire 32 9 mem_Imm [31:0] $end
$var wire 32 : mem_Data2 [31:0] $end
$var wire 32 ; inst [31:0] $end
$var wire 1 < if_id_Write $end
$var wire 1 = if_id_Flush $end
$var wire 32 > id_rdata2 [31:0] $end
$var wire 32 ? id_rdata1 [31:0] $end
$var wire 1 @ id_ex_Flush $end
$var wire 2 A id_WTR [1:0] $end
$var wire 5 B id_Rs2 [4:0] $end
$var wire 5 C id_Rs1 [4:0] $end
$var wire 1 D id_RegWrite $end
$var wire 5 E id_Rd [4:0] $end
$var wire 32 F id_PCImm [31:0] $end
$var wire 32 G id_PC4 [31:0] $end
$var wire 2 H id_MemWrite [1:0] $end
$var wire 3 I id_MemRead [2:0] $end
$var wire 1 J id_JALR $end
$var wire 1 K id_JAL $end
$var wire 32 L id_Inst [31:0] $end
$var wire 32 M id_Imm [31:0] $end
$var wire 1 N id_Branch $end
$var wire 2 O id_ALU_Op [1:0] $end
$var wire 4 P id_ALU_Ctrl [3:0] $end
$var wire 1 Q id_ALUSrcB $end
$var wire 1 R id_ALUSrcA $end
$var wire 32 S forwardB_data [31:0] $end
$var wire 2 T forwardB [1:0] $end
$var wire 32 U forwardA_data [31:0] $end
$var wire 2 V forwardA [1:0] $end
$var wire 2 W ex_WTR [1:0] $end
$var wire 5 X ex_Rs2 [4:0] $end
$var wire 5 Y ex_Rs1 [4:0] $end
$var wire 1 Z ex_RegWrite $end
$var wire 5 [ ex_Rd [4:0] $end
$var wire 32 \ ex_PCImm [31:0] $end
$var wire 32 ] ex_PC4 [31:0] $end
$var wire 2 ^ ex_MemWrite [1:0] $end
$var wire 1 _ ex_MemRead_flag $end
$var wire 3 ` ex_MemRead [2:0] $end
$var wire 1 a ex_JALR $end
$var wire 32 b ex_Imm [31:0] $end
$var wire 32 c ex_Data2 [31:0] $end
$var wire 32 d ex_Data1 [31:0] $end
$var wire 1 e ex_Branch_cond $end
$var wire 1 f ex_Branch $end
$var wire 32 g ex_ALU_Result [31:0] $end
$var wire 4 h ex_ALU_Ctrl [3:0] $end
$var wire 1 i ex_ALUSrcB $end
$var wire 1 j ex_ALUSrcA $end
$var wire 32 k alu_in2 [31:0] $end
$var wire 32 l alu_in1 [31:0] $end
$var wire 1 m PCWrite $end
$scope module u_adder_id_pcimm $end
$var wire 32 n Result [31:0] $end
$var wire 32 o B [31:0] $end
$var wire 32 p A [31:0] $end
$upscope $end
$scope module u_adder_pc4 $end
$var wire 32 q B [31:0] $end
$var wire 32 r Result [31:0] $end
$var wire 32 s A [31:0] $end
$upscope $end
$scope module u_alu $end
$var wire 32 t A [31:0] $end
$var wire 32 u B [31:0] $end
$var wire 5 v shamt [4:0] $end
$var wire 4 w ALU_Ctrl [3:0] $end
$var parameter 32 x DATAWIDTH $end
$var reg 1 e Branch_cond $end
$var reg 32 y Result [31:0] $end
$upscope $end
$scope module u_alu_ctrl $end
$var wire 3 z funct3 [2:0] $end
$var wire 7 { funct7 [6:0] $end
$var wire 1 | funct7b5 $end
$var wire 2 } ALU_Op [1:0] $end
$var reg 4 ~ ALU_Ctrl [3:0] $end
$upscope $end
$scope module u_controller $end
$var wire 7 !" opcode [6:0] $end
$var wire 32 "" id_Inst [31:0] $end
$var wire 3 #" funct3 [2:0] $end
$var reg 1 R id_ALUSrcA $end
$var reg 1 Q id_ALUSrcB $end
$var reg 2 $" id_ALU_Op [1:0] $end
$var reg 1 N id_Branch $end
$var reg 1 K id_JAL $end
$var reg 1 J id_JALR $end
$var reg 3 %" id_MemRead [2:0] $end
$var reg 2 &" id_MemWrite [1:0] $end
$var reg 1 D id_RegWrite $end
$var reg 2 '" id_WTR [1:0] $end
$upscope $end
$scope module u_data_ram $end
$var wire 1 " clk $end
$var wire 1 # rstn $end
$var wire 32 (" w_Data [31:0] $end
$var wire 2 )" MemWrite [1:0] $end
$var wire 3 *" MemRead [2:0] $end
$var wire 32 +" Addr [31:0] $end
$var parameter 32 ," ADDR_WIDTH $end
$var parameter 32 -" BIT_WIDTH $end
$var reg 32 ." r_Data [31:0] $end
$var integer 32 /" i [31:0] $end
$upscope $end
$scope module u_ex_mem $end
$var wire 1 " clk $end
$var wire 32 0" ex_Data2 [31:0] $end
$var wire 32 1" ex_Result [31:0] $end
$var wire 1 # rstn $end
$var wire 2 2" ex_WTR [1:0] $end
$var wire 1 Z ex_RegWrite $end
$var wire 5 3" ex_Rd [4:0] $end
$var wire 32 4" ex_PC4 [31:0] $end
$var wire 2 5" ex_MemWrite [1:0] $end
$var wire 3 6" ex_MemRead [2:0] $end
$var wire 32 7" ex_Imm [31:0] $end
$var reg 32 8" mem_Data2 [31:0] $end
$var reg 32 9" mem_Imm [31:0] $end
$var reg 3 :" mem_MemRead [2:0] $end
$var reg 2 ;" mem_MemWrite [1:0] $end
$var reg 32 <" mem_PC4 [31:0] $end
$var reg 5 =" mem_Rd [4:0] $end
$var reg 1 4 mem_RegWrite $end
$var reg 32 >" mem_Result [31:0] $end
$var reg 2 ?" mem_WTR [1:0] $end
$upscope $end
$scope module u_forward_unit $end
$var wire 5 @" mem_Rd [4:0] $end
$var wire 1 4 mem_RegWrite $end
$var wire 1 ) wb_RegWrite $end
$var wire 5 A" wb_Rd [4:0] $end
$var wire 5 B" ex_Rs2 [4:0] $end
$var wire 5 C" ex_Rs1 [4:0] $end
$var reg 2 D" ForwardA [1:0] $end
$var reg 2 E" ForwardB [1:0] $end
$upscope $end
$scope module u_hazard_detector $end
$var wire 1 $ ex_Branch_taken $end
$var wire 1 _ ex_MemRead $end
$var wire 5 F" id_Rs1 [4:0] $end
$var wire 5 G" id_Rs2 [4:0] $end
$var wire 5 H" ex_Rd [4:0] $end
$var wire 1 a ex_JALR $end
$var reg 1 m PCWrite $end
$var reg 1 @ id_ex_Flush $end
$var reg 1 = if_id_Flush $end
$var reg 1 < if_id_Write $end
$upscope $end
$scope module u_id_ex $end
$var wire 1 " clk $end
$var wire 1 @ flush $end
$var wire 1 R id_ALUSrcA $end
$var wire 1 Q id_ALUSrcB $end
$var wire 4 I" id_ALU_Ctrl [3:0] $end
$var wire 1 N id_Branch $end
$var wire 1 J id_JALR $end
$var wire 3 J" id_MemRead [2:0] $end
$var wire 2 K" id_MemWrite [1:0] $end
$var wire 32 L" id_PCImm [31:0] $end
$var wire 5 M" id_Rd [4:0] $end
$var wire 1 D id_RegWrite $end
$var wire 5 N" id_Rs1 [4:0] $end
$var wire 5 O" id_Rs2 [4:0] $end
$var wire 2 P" id_WTR [1:0] $end
$var wire 1 # rstn $end
$var wire 32 Q" id_PC4 [31:0] $end
$var wire 32 R" id_Imm [31:0] $end
$var wire 32 S" id_Data2 [31:0] $end
$var wire 32 T" id_Data1 [31:0] $end
$var reg 1 j ex_ALUSrcA $end
$var reg 1 i ex_ALUSrcB $end
$var reg 4 U" ex_ALU_Ctrl [3:0] $end
$var reg 1 f ex_Branch $end
$var reg 32 V" ex_Data1 [31:0] $end
$var reg 32 W" ex_Data2 [31:0] $end
$var reg 32 X" ex_Imm [31:0] $end
$var reg 1 a ex_JALR $end
$var reg 3 Y" ex_MemRead [2:0] $end
$var reg 2 Z" ex_MemWrite [1:0] $end
$var reg 32 [" ex_PC4 [31:0] $end
$var reg 32 \" ex_PCImm [31:0] $end
$var reg 5 ]" ex_Rd [4:0] $end
$var reg 1 Z ex_RegWrite $end
$var reg 5 ^" ex_Rs1 [4:0] $end
$var reg 5 _" ex_Rs2 [4:0] $end
$var reg 2 `" ex_WTR [1:0] $end
$upscope $end
$scope module u_if_id $end
$var wire 1 " clk $end
$var wire 1 = flush $end
$var wire 32 a" if_PC4 [31:0] $end
$var wire 1 < if_id_Write $end
$var wire 1 # rstn $end
$var wire 32 b" if_Inst [31:0] $end
$var reg 32 c" id_Inst [31:0] $end
$var reg 32 d" id_PC4 [31:0] $end
$upscope $end
$scope module u_imm_gen $end
$var wire 32 e" inst [31:0] $end
$var wire 7 f" opcode [6:0] $end
$var reg 32 g" imm [31:0] $end
$upscope $end
$scope module u_inst_rom $end
$var wire 32 h" addr [31:0] $end
$var reg 32 i" inst [31:0] $end
$var integer 32 j" i [31:0] $end
$upscope $end
$scope module u_mem_wb $end
$var wire 1 " clk $end
$var wire 32 k" mem_Data [31:0] $end
$var wire 32 l" mem_Imm [31:0] $end
$var wire 32 m" mem_PC4 [31:0] $end
$var wire 5 n" mem_Rd [4:0] $end
$var wire 1 4 mem_RegWrite $end
$var wire 32 o" mem_Result [31:0] $end
$var wire 2 p" mem_WTR [1:0] $end
$var wire 1 # rstn $end
$var reg 32 q" wb_Data [31:0] $end
$var reg 32 r" wb_Imm [31:0] $end
$var reg 32 s" wb_PC4 [31:0] $end
$var reg 5 t" wb_Rd [4:0] $end
$var reg 1 ) wb_RegWrite $end
$var reg 32 u" wb_Result [31:0] $end
$var reg 2 v" wb_WTR [1:0] $end
$upscope $end
$scope module u_next_pc $end
$var wire 1 $ ex_Branch_taken $end
$var wire 1 a ex_JALR $end
$var wire 32 w" ex_PCImm [31:0] $end
$var wire 32 x" ex_Rs1Imm [31:0] $end
$var wire 1 K id_JAL $end
$var wire 32 y" id_PCImm [31:0] $end
$var wire 32 z" if_PC4 [31:0] $end
$var reg 32 {" next_PC [31:0] $end
$upscope $end
$scope module u_pc $end
$var wire 1 m PCWrite $end
$var wire 1 " clk $end
$var wire 32 |" next_pc [31:0] $end
$var wire 1 # rstn $end
$var reg 32 }" inst_addr [31:0] $end
$upscope $end
$scope module u_reg_file $end
$var wire 5 ~" Rd [4:0] $end
$var wire 1 ) RegWrite $end
$var wire 5 !# Rs1 [4:0] $end
$var wire 5 "# Rs2 [4:0] $end
$var wire 1 " clk $end
$var wire 1 # rst_n $end
$var wire 32 ## w_Data [31:0] $end
$var reg 32 $# r_Data1 [31:0] $end
$var reg 32 %# r_Data2 [31:0] $end
$var integer 32 &# i [31:0] $end
$var integer 32 '# j [31:0] $end
$var integer 32 (# k [31:0] $end
$upscope $end
$upscope $end
$upscope $end
$enddefinitions $end
$comment Show the parameter values. $end
$dumpall
b100000 -"
b100000 ,"
b100000 x
b101111101011110000100000000 !
$end
#0
$dumpvars
bx (#
bx '#
b100000 &#
b0 %#
b0 $#
bx ##
bx "#
bx !#
bx ~"
bx }"
bx |"
bx {"
bx z"
bx y"
bx0 x"
bx w"
bx v"
bx u"
bx t"
bx s"
bx r"
bx q"
bx p"
bx o"
bx n"
bx m"
bx l"
bx k"
b100000000 j"
bx i"
bx h"
bx g"
bx f"
bx e"
bx d"
bx c"
bx b"
bx a"
bx `"
bx _"
bx ^"
bx ]"
bx \"
bx ["
bx Z"
bx Y"
bx X"
bx W"
bx V"
bx U"
b0 T"
b0 S"
bx R"
bx Q"
bx P"
bx O"
bx N"
bx M"
bx L"
bx K"
bx J"
bx I"
bx H"
bx G"
bx F"
bx E"
bx D"
bx C"
bx B"
bx A"
bx @"
bx ?"
bx >"
bx ="
bx <"
bx ;"
bx :"
bx 9"
bx 8"
bx 7"
bx 6"
bx 5"
bx 4"
bx 3"
bx 2"
bx 1"
bx 0"
bx /"
bx ."
bx +"
bx *"
bx )"
bx ("
bx '"
bx &"
bx %"
bx $"
bx #"
bx ""
bx !"
bx ~
bx }
x|
bx {
bx z
bx y
bx w
bx v
bx u
bx t
bx s
bx r
b100 q
bx p
bx o
bx n
xm
bx l
bx k
xj
xi
bx h
bx g
xf
xe
bx d
bx c
bx b
xa
bx `
x_
bx ^
bx ]
bx \
bx [
xZ
bx Y
bx X
bx W
bx V
bx U
bx T
bx S
xR
xQ
bx P
bx O
xN
bx M
bx L
xK
xJ
bx I
bx H
bx G
bx F
bx E
xD
bx C
bx B
bx A
x@
b0 ?
b0 >
x=
x<
bx ;
bx :
bx 9
bx 8
bx 7
bx 6
bx 5
x4
bx 3
bx 2
bx 1
bx 0
bx /
bx .
bx -
bx ,
bx +
bx *
x)
bx (
bx '
bx &
bx0 %
x$
0#
0"
$end
#5
b0 %
b0 x"
b0 v
b0 g
b0 y
b0 1"
b0 k
b0 u
b0 l
b0 t
0K
0J
0N
0Q
0R
b0 O
b0 }
b0 $"
b0 H
b0 &"
b0 K"
b0 I
b0 %"
b0 J"
b0 A
b0 '"
b0 P"
0D
b0 P
b0 ~
b0 I"
0|
b0 S
b0 0"
b0 U
b100000000000000000111000010011 ;
b100000000000000000111000010011 b"
b100000000000000000111000010011 i"
b0 f"
b0 #"
b0 !"
b0 z
b0 {
b0 E
b0 M"
b0 B
b0 G"
b0 O"
b0 "#
b0 C
b0 F"
b0 N"
b0 !#
b0 F
b0 n
b0 L"
b0 y"
b0 M
b0 o
b0 R"
b0 g"
b100 0
b100 {"
b100 |"
0$
0e
0@
0=
1<
1m
b0 1
b0 ."
b0 k"
b0 >
b0 S"
b0 %#
b0 ?
b0 T"
b0 $#
b0 &
b0 ##
b0 T
b0 E"
b0 V
b0 D"
b100 .
b100 r
b100 a"
b100 z"
b0 /
b0 s
b0 h"
b0 }"
b0 L
b0 ""
b0 c"
b0 e"
b0 G
b0 p
b0 Q"
b0 d"
b0 ]
b0 4"
b0 ["
b0 \
b0 \"
b0 w"
b0 [
b0 3"
b0 H"
b0 ]"
b0 X
b0 B"
b0 _"
b0 Y
b0 C"
b0 ^"
0a
0f
0i
0j
b0 h
b0 w
b0 U"
b0 ^
b0 5"
b0 Z"
0_
b0 `
b0 6"
b0 Y"
b0 W
b0 2"
b0 `"
0Z
b0 c
b0 W"
b0 d
b0 V"
b0 b
b0 7"
b0 X"
b0 5
b0 ="
b0 @"
b0 n"
b0 9
b0 9"
b0 l"
b0 :
b0 ("
b0 8"
b0 3
b0 +"
b0 >"
b0 o"
b0 6
b0 <"
b0 m"
b0 2
b0 ?"
b0 p"
04
b0 7
b0 )"
b0 ;"
b0 8
b0 *"
b0 :"
b0 ,
b0 r"
b0 (
b0 u"
b0 -
b0 q"
b0 +
b0 s"
b0 *
b0 A"
b0 t"
b0 ~"
b0 '
b0 v"
0)
b0 /"
b100000 &#
1"
#10
0"
#15
b100000 &#
1"
#20
0"
1#
#25
b1000000000 M
b1000000000 o
b1000000000 R"
b1000000000 g"
1Q
b1 A
b1 '"
b1 P"
1D
b10010111 ;
b10010111 b"
b10010111 i"
b10011 f"
b10011 !"
b10000 {
b11100 E
b11100 M"
b1000 0
b1000 {"
b1000 |"
b1000 .
b1000 r
b1000 a"
b1000 z"
b100 /
b100 s
b100 h"
b100 }"
b100000000000000000111000010011 L
b100000000000000000111000010011 ""
b100000000000000000111000010011 c"
b100000000000000000111000010011 e"
b1000000100 F
b1000000100 n
b1000000100 L"
b1000000100 y"
b100 G
b100 p
b100 Q"
b100 d"
1"
#30
0"
#35
b1000000000 %
b1000000000 x"
b1000000000 g
b1000000000 y
b1000000000 1"
1R
b1000000000 k
b1000000000 u
b10111 f"
b10111 !"
b0 {
b1 E
b1 M"
b0 M
b0 o
b0 R"
b0 g"
b1100 0
b1100 {"
b1100 |"
b111100010000000100011 ;
b111100010000000100011 b"
b111100010000000100011 i"
b100 ]
b100 4"
b100 ["
b1000000100 \
b1000000100 \"
b1000000100 w"
b11100 [
b11100 3"
b11100 H"
b11100 ]"
1i
b1 W
b1 2"
b1 `"
1Z
b1000000000 b
b1000000000 7"
b1000000000 X"
b10010111 L
b10010111 ""
b10010111 c"
b10010111 e"
b1000 F
b1000 n
b1000 L"
b1000 y"
b1000 G
b1000 p
b1000 Q"
b1000 d"
b1100 .
b1100 r
b1100 a"
b1100 z"
b1000 /
b1000 s
b1000 h"
b1000 }"
1"
#40
0"
#45
b1000 %
b1000 x"
b11 H
b11 &"
b11 K"
0R
b0 A
b0 '"
b0 P"
0D
b1000 g
b1000 y
b1000 1"
b10000000000000101101111 ;
b10000000000000101101111 b"
b10000000000000101101111 i"
b100011 f"
b10 #"
b100011 !"
b10 z
b0 E
b0 M"
b1 B
b1 G"
b1 O"
b1 "#
b11100 C
b11100 F"
b11100 N"
b11100 !#
b0 M
b0 o
b0 R"
b0 g"
b10000 0
b10000 {"
b10000 |"
b1000 l
b1000 t
b0 k
b0 u
b10000 .
b10000 r
b10000 a"
b10000 z"
b1100 /
b1100 s
b1100 h"
b1100 }"
b111100010000000100011 L
b111100010000000100011 ""
b111100010000000100011 c"
b111100010000000100011 e"
b1100 F
b1100 n
b1100 L"
b1100 y"
b1100 G
b1100 p
b1100 Q"
b1100 d"
b1000 ]
b1000 4"
b1000 ["
b1000 \
b1000 \"
b1000 w"
b1 [
b1 3"
b1 H"
b1 ]"
1j
b0 b
b0 7"
b0 X"
b11100 5
b11100 ="
b11100 @"
b11100 n"
b1000000000 9
b1000000000 9"
b1000000000 l"
b1000000000 3
b1000000000 +"
b1000000000 >"
b1000000000 o"
b100 6
b100 <"
b100 m"
b1 2
b1 ?"
b1 p"
14
1"
#50
0"
#55
b1000000000 U
b1000000000 %
b1000000000 x"
b1000000000 &
b1000000000 ##
b1000 S
b1000 0"
b1000000000 g
b1000000000 y
b1000000000 1"
1K
0Q
b0 H
b0 &"
b0 K"
b10 A
b10 '"
b10 P"
1D
b10 T
b10 E"
b1 V
b1 D"
b1000000000 l
b1000000000 t
b1101111 f"
b0 #"
b1101111 !"
b0 z
b10 E
b10 M"
b100 B
b100 G"
b100 O"
b100 "#
b0 C
b0 F"
b0 N"
b0 !#
b100 M
b100 o
b100 R"
b100 g"
b10100 0
b10100 {"
b10100 |"
b11101110111100000000000110010011 ;
b11101110111100000000000110010011 b"
b11101110111100000000000110010011 i"
b1000000000 ,
b1000000000 r"
b1000000000 (
b1000000000 u"
b100 +
b100 s"
b11100 *
b11100 A"
b11100 t"
b11100 ~"
b1 '
b1 v"
1)
b1 5
b1 ="
b1 @"
b1 n"
b0 9
b0 9"
b0 l"
b1000 3
b1000 +"
b1000 >"
b1000 o"
b1000 6
b1000 <"
b1000 m"
b1100 ]
b1100 4"
b1100 ["
b1100 \
b1100 \"
b1100 w"
b0 [
b0 3"
b0 H"
b0 ]"
b1 X
b1 B"
b1 _"
b11100 Y
b11100 C"
b11100 ^"
0j
b11 ^
b11 5"
b11 Z"
b0 W
b0 2"
b0 `"
0Z
b10000000000000101101111 L
b10000000000000101101111 ""
b10000000000000101101111 c"
b10000000000000101101111 e"
b10100 F
b10100 n
b10100 L"
b10100 y"
b10000 G
b10000 p
b10000 Q"
b10000 d"
b10100 .
b10100 r
b10100 a"
b10100 z"
b10000 /
b10000 s
b10000 h"
b10000 }"
1"
#60
0"
#65
b0 %
b0 x"
b0 g
b0 y
b0 1"
b0 l
b0 t
b0 U
0K
1Q
b1 A
b1 '"
b1 P"
1|
b1000 &
b1000 ##
b1011100010001000100011 ;
b1011100010001000100011 b"
b1011100010001000100011 i"
b10011 f"
b10011 !"
b1110111 {
b11 E
b11 M"
b1111 B
b1111 G"
b1111 O"
b1111 "#
b11111111111111111111111011101111 M
b11111111111111111111111011101111 o
b11111111111111111111111011101111 R"
b11111111111111111111111011101111 g"
b11000 0
b11000 {"
b11000 |"
b0 S
b0 0"
b0 T
b0 E"
b0 V
b0 D"
b11000 .
b11000 r
b11000 a"
b11000 z"
b10100 /
b10100 s
b10100 h"
b10100 }"
b11101110111100000000000110010011 L
b11101110111100000000000110010011 ""
b11101110111100000000000110010011 c"
b11101110111100000000000110010011 e"
b11111111111111111111111100000011 F
b11111111111111111111111100000011 n
b11111111111111111111111100000011 L"
b11111111111111111111111100000011 y"
b10100 G
b10100 p
b10100 Q"
b10100 d"
b10000 ]
b10000 4"
b10000 ["
b10100 \
b10100 \"
b10100 w"
b10 [
b10 3"
b10 H"
b10 ]"
b100 X
b100 B"
b100 _"
b0 Y
b0 C"
b0 ^"
0i
b0 ^
b0 5"
b0 Z"
b10 W
b10 2"
b10 `"
1Z
b100 b
b100 7"
b100 X"
b0 5
b0 ="
b0 @"
b0 n"
b1000 :
b1000 ("
b1000 8"
b1000000000 3
b1000000000 +"
b1000000000 >"
b1000000000 o"
b1100 6
b1100 <"
b1100 m"
b0 2
b0 ?"
b0 p"
04
b11 7
b11 )"
b11 ;"
b0 ,
b0 r"
b1000 (
b1000 u"
b1000 +
b1000 s"
b1 *
b1 A"
b1 t"
b1 ~"
1"
#70
0"
#75
b11111111111111111111111011101110 %
b11111111111111111111111011101110 x"
b11111111111111111111111011101111 g
b11111111111111111111111011101111 y
b11111111111111111111111011101111 1"
b1111 v
b11 H
b11 &"
b11 K"
b0 A
b0 '"
b0 P"
0D
0|
b1000000000 ?
b1000000000 T"
b1000000000 $#
b0 &
b0 ##
b11111111111111111111111011101111 k
b11111111111111111111111011101111 u
b100011 f"
b10 #"
b100011 !"
b10 z
b0 {
b100 E
b100 M"
b10 B
b10 G"
b10 O"
b10 "#
b11100 C
b11100 F"
b11100 N"
b11100 !#
b100 M
b100 o
b100 R"
b100 g"
b11100 0
b11100 {"
b11100 |"
b1111100010010000100011 ;
b1111100010010000100011 b"
b1111100010010000100011 i"
b1000000000 (
b1000000000 u"
b1100 +
b1100 s"
b0 *
b0 A"
b0 t"
b0 ~"
b0 '
b0 v"
0)
b10 5
b10 ="
b10 @"
b10 n"
b100 9
b100 9"
b100 l"
b0 :
b0 ("
b0 8"
b0 3
b0 +"
b0 >"
b0 o"
b10000 6
b10000 <"
b10000 m"
b10 2
b10 ?"
b10 p"
14
b0 7
b0 )"
b0 ;"
b10100 ]
b10100 4"
b10100 ["
b11111111111111111111111100000011 \
b11111111111111111111111100000011 \"
b11111111111111111111111100000011 w"
b11 [
b11 3"
b11 H"
b11 ]"
b1111 X
b1111 B"
b1111 _"
1i
b1 W
b1 2"
b1 `"
b11111111111111111111111011101111 b
b11111111111111111111111011101111 7"
b11111111111111111111111011101111 X"
b1011100010001000100011 L
b1011100010001000100011 ""
b1011100010001000100011 c"
b1011100010001000100011 e"
b11100 F
b11100 n
b11100 L"
b11100 y"
b11000 G
b11000 p
b11000 Q"
b11000 d"
b11100 .
b11100 r
b11100 a"
b11100 z"
b11000 /
b11000 s
b11000 h"
b11000 }"
1"
#80
0"
#85
b10000 S
b10000 0"
b1000000000 l
b1000000000 t
b1000000100 %
b1000000100 x"
b10000 &
b10000 ##
b1000000000 U
b1000000100 g
b1000000100 y
b1000000100 1"
b100 v
b1000010111 ;
b1000010111 b"
b1000010111 i"
b1000 E
b1000 M"
b11 B
b11 G"
b11 O"
b11 "#
b1000 M
b1000 o
b1000 R"
b1000 g"
b100000 0
b100000 {"
b100000 |"
b100 k
b100 u
b1 T
b1 E"
b100000 .
b100000 r
b100000 a"
b100000 z"
b11100 /
b11100 s
b11100 h"
b11100 }"
b1111100010010000100011 L
b1111100010010000100011 ""
b1111100010010000100011 c"
b1111100010010000100011 e"
b100100 F
b100100 n
b100100 L"
b100100 y"
b11100 G
b11100 p
b11100 Q"
b11100 d"
b11000 ]
b11000 4"
b11000 ["
b11100 \
b11100 \"
b11100 w"
b100 [
b100 3"
b100 H"
b100 ]"
b10 X
b10 B"
b10 _"
b11100 Y
b11100 C"
b11100 ^"
b11 ^
b11 5"
b11 Z"
b0 W
b0 2"
b0 `"
0Z
b1000000000 d
b1000000000 V"
b100 b
b100 7"
b100 X"
b11 5
b11 ="
b11 @"
b11 n"
b11111111111111111111111011101111 9
b11111111111111111111111011101111 9"
b11111111111111111111111011101111 l"
b11111111111111111111111011101111 3
b11111111111111111111111011101111 +"
b11111111111111111111111011101111 >"
b11111111111111111111111011101111 o"
b10100 6
b10100 <"
b10100 m"
b1 2
b1 ?"
b1 p"
b100 ,
b100 r"
b0 (
b0 u"
b10000 +
b10000 s"
b10 *
b10 A"
b10 t"
b10 ~"
b10 '
b10 v"
1)
1"
#90
0"
#95
b11111111111111111111111011101111 S
b11111111111111111111111011101111 0"
b1000001000 %
b1000001000 x"
b11111111111111111111111011101111 &
b11111111111111111111111011101111 ##
b1000001000 g
b1000001000 y
b1000001000 1"
b1000 v
1R
b0 H
b0 &"
b0 K"
b1 A
b1 '"
b1 P"
1D
b0 ?
b0 T"
b0 $#
b1000 k
b1000 u
b10111 f"
b0 #"
b10111 !"
b0 z
b100 E
b100 M"
b0 B
b0 G"
b0 O"
b0 "#
b0 C
b0 F"
b0 N"
b0 !#
b0 M
b0 o
b0 R"
b0 g"
b100100 0
b100100 {"
b100100 |"
b1000000100000001000010011 ;
b1000000100000001000010011 b"
b1000000100000001000010011 i"
b0 >
b0 S"
b0 %#
b11111111111111111111111011101111 ,
b11111111111111111111111011101111 r"
b11111111111111111111111011101111 (
b11111111111111111111111011101111 u"
b10100 +
b10100 s"
b11 *
b11 A"
b11 t"
b11 ~"
b1 '
b1 v"
b100 5
b100 ="
b100 @"
b100 n"
b100 9
b100 9"
b100 l"
b10000 :
b10000 ("
b10000 8"
b1000000100 3
b1000000100 +"
b1000000100 >"
b1000000100 o"
b11000 6
b11000 <"
b11000 m"
b0 2
b0 ?"
b0 p"
04
b11 7
b11 )"
b11 ;"
b11100 ]
b11100 4"
b11100 ["
b100100 \
b100100 \"
b100100 w"
b1000 [
b1000 3"
b1000 H"
b1000 ]"
b11 X
b11 B"
b11 _"
b1000 b
b1000 7"
b1000 X"
b1000010111 L
b1000010111 ""
b1000010111 c"
b1000010111 e"
b100000 F
b100000 n
b100000 L"
b100000 y"
b100000 G
b100000 p
b100000 Q"
b100000 d"
b100100 .
b100100 r
b100100 a"
b100100 z"
b100000 /
b100000 s
b100000 h"
b100000 }"
1"
#100
0"
#105
b100000 %
b100000 x"
b0 S
b0 0"
0R
b0 U
b100000 g
b100000 y
b100000 1"
b0 v
b100000001011100111 ;
b100000001011100111 b"
b100000001011100111 i"
b10011 f"
b10011 !"
b10000 B
b10000 G"
b10000 O"
b10000 "#
b100 C
b100 F"
b100 N"
b100 !#
b10000 M
b10000 o
b10000 R"
b10000 g"
b101000 0
b101000 {"
b101000 |"
b100000 l
b100000 t
b0 k
b0 u
b0 &
b0 ##
b0 T
b0 E"
b101000 .
b101000 r
b101000 a"
b101000 z"
b100100 /
b100100 s
b100100 h"
b100100 }"
b1000000100000001000010011 L
b1000000100000001000010011 ""
b1000000100000001000010011 c"
b1000000100000001000010011 e"
b110100 F
b110100 n
b110100 L"
b110100 y"
b100100 G
b100100 p
b100100 Q"
b100100 d"
b100000 ]
b100000 4"
b100000 ["
b100000 \
b100000 \"
b100000 w"
b100 [
b100 3"
b100 H"
b100 ]"
b0 X
b0 B"
b0 _"
b0 Y
b0 C"
b0 ^"
1j
b0 ^
b0 5"
b0 Z"
b1 W
b1 2"
b1 `"
1Z
b0 d
b0 V"
b0 b
b0 7"
b0 X"
b1000 5
b1000 ="
b1000 @"
b1000 n"
b1000 9
b1000 9"
b1000 l"
b11111111111111111111111011101111 :
b11111111111111111111111011101111 ("
b11111111111111111111111011101111 8"
b1000001000 3
b1000001000 +"
b1000001000 >"
b1000001000 o"
b11100 6
b11100 <"
b11100 m"
b100 ,
b100 r"
b1000000100 (
b1000000100 u"
b11000 +
b11000 s"
b100 *
b100 A"
b100 t"
b100 ~"
b0 '
b0 v"
0)
1"
#110
0"
#115
b110000 %
b110000 x"
b100000 U
b110000 g
b110000 y
b110000 1"
b10000 v
1J
b10 A
b10 '"
b10 P"
b10 V
b10 D"
b100000 l
b100000 t
b10000 k
b10000 u
b1100111 f"
b1100111 !"
b101 E
b101 M"
b0 B
b0 G"
b0 O"
b0 "#
b0 M
b0 o
b0 R"
b0 g"
b101100 0
b101100 {"
b101100 |"
b10101100111000000000001100010011 ;
b10101100111000000000001100010011 b"
b10101100111000000000001100010011 i"
b1000 ,
b1000 r"
b1000001000 (
b1000001000 u"
b11100 +
b11100 s"
b1000 *
b1000 A"
b1000 t"
b1000 ~"
b100 5
b100 ="
b100 @"
b100 n"
b0 9
b0 9"
b0 l"
b0 :
b0 ("
b0 8"
b100000 3
b100000 +"
b100000 >"
b100000 o"
b100000 6
b100000 <"
b100000 m"
b1 2
b1 ?"
b1 p"
14
b0 7
b0 )"
b0 ;"
b100100 ]
b100100 4"
b100100 ["
b110100 \
b110100 \"
b110100 w"
b10000 X
b10000 B"
b10000 _"
b100 Y
b100 C"
b100 ^"
0j
b10000 b
b10000 7"
b10000 X"
b100000001011100111 L
b100000001011100111 ""
b100000001011100111 c"
b100000001011100111 e"
b101000 F
b101000 n
b101000 L"
b101000 y"
b101000 G
b101000 p
b101000 Q"
b101000 d"
b101100 .
b101100 r
b101100 a"
b101100 z"
b101000 /
b101000 s
b101000 h"
b101000 }"
1"
#120
0"
